Assignment1
…
## -- Column specification --------------------------------------------------------
## Delimiter: ","
## dbl (5): clientid, income, age, loan, default

## 
## i Use `spec()` to retrieve the full column specification for this data.
## i Specify the column types or set `show_col_types = FALSE` to quiet this message.

##read_csv is used to read the data set
View(credit_data) ##To view the entries in the data set 

#To display the data of credit_data file  
credit_data

## # A tibble: 2,000 x 5
##    clientid income   age   loan default
##       <dbl>  <dbl> <dbl>  <dbl>   <dbl>
##  1        1 66156.  59.0 8107.        0
##  2        2 34415.  48.1 6565.        0
##  3        3 57317.  63.1 8021.        0
##  4        4 42710.  45.8 6104.        0
##  5        5 66953.  18.6 8770.        1
##  6        6 24904.  57.5   15.5       0
##  7        7 48430.  26.8 5723.        0
##  8        8 24500.  32.9 2971.        1
##  9        9 40655.  55.5 4756.        0
## 10       10 25076.  39.8 1409.        0
## # ... with 1,990 more rows
…
